COD_UF|NOME_UF|SIGLA_UF|COD_MESO|NOME_MESO|COD_MICRO|NOME_MICRO|COD_MUNI|NOME_MUNI|NOME_UNIDECODE|POPULACAO
23|Ceará|CE|7|Sul Cearense|33|Brejo Santo|2300101|Abaiara|ABAIARA|11853
23|Ceará|CE|2|Norte Cearense|13|Baturité|2300150|Acarape|ACARAPE|15036
23|Ceará|CE|1|Noroeste Cearense|1|Litoral de Camocim e Acaraú|2300200|Acaraú|ACARAU|63104
23|Ceará|CE|4|Sertões Cearenses|21|Sertão de Senador Pompeu|2300309|Acopiara|ACOPIARA|54481
23|Ceará|CE|4|Sertões Cearenses|20|Sertão de Inhamuns|2300408|Aiuaba|AIUABA|17493
23|Ceará|CE|1|Noroeste Cearense|4|Meruoca|2300507|Alcântaras|ALCANTARAS|11781
23|Ceará|CE|7|Sul Cearense|30|Caririaçu|2300606|Altaneira|ALTANEIRA|7650
23|Ceará|CE|5|Jaguaribe|23|Baixo Jaguaribe|2300705|Alto Santo|ALTO SANTO|17196
23|Ceará|CE|2|Norte Cearense|8|Itapipoca|2300754|Amontada|AMONTADA|43829
23|Ceará|CE|6|Centro-Sul Cearense|27|Várzea Alegre|2300804|Antonina do Norte|ANTONINA DO NORTE|7378
23|Ceará|CE|2|Norte Cearense|11|Médio Curu|2300903|Apuiarés|APUIARES|14672
23|Ceará|CE|3|Metropolitana de Fortaleza|16|Fortaleza|2301000|Aquiraz|AQUIRAZ|80935
23|Ceará|CE|5|Jaguaribe|22|Litoral de Aracati|2301109|Aracati|ARACATI|74975
23|Ceará|CE|2|Norte Cearense|13|Baturité|2301208|Aracoiaba|ARACOIABA|26535
23|Ceará|CE|4|Sertões Cearenses|18|Sertão de Cratéus|2301257|Ararendá|ARARENDA|10959
23|Ceará|CE|7|Sul Cearense|29|Chapada do Araripe|2301307|Araripe|ARARIPE|21654
23|Ceará|CE|2|Norte Cearense|13|Baturité|2301406|Aratuba|ARATUBA|11802
23|Ceará|CE|4|Sertões Cearenses|20|Sertão de Inhamuns|2301505|Arneiroz|ARNEIROZ|7844
23|Ceará|CE|7|Sul Cearense|29|Chapada do Araripe|2301604|Assaré|ASSARE|23478
23|Ceará|CE|7|Sul Cearense|31|Barro|2301703|Aurora|AURORA|24610
23|Ceará|CE|6|Centro-Sul Cearense|28|Lavras da Mangabeira|2301802|Baixio|BAIXIO|6303
23|Ceará|CE|4|Sertões Cearenses|19|Sertão de Quixeramobim|2301851|Banabuiú|BANABUIU|18256
23|Ceará|CE|7|Sul Cearense|32|Cariri|2301901|Barbalha|BARBALHA|61228
23|Ceará|CE|2|Norte Cearense|14|Chorozinho|2301950|Barreira|BARREIRA|22573
23|Ceará|CE|7|Sul Cearense|31|Barro|2302008|Barro|BARRO|22758
23|Ceará|CE|1|Noroeste Cearense|1|Litoral de Camocim e Acaraú|2302057|Barroquinha|BARROQUINHA|15044
23|Ceará|CE|2|Norte Cearense|13|Baturité|2302107|Baturité|BATURITE|35941
23|Ceará|CE|2|Norte Cearense|15|Cascavel|2302206|Beberibe|BEBERIBE|53949
23|Ceará|CE|1|Noroeste Cearense|1|Litoral de Camocim e Acaraú|2302305|Bela Cruz|BELA CRUZ|32722
23|Ceará|CE|4|Sertões Cearenses|19|Sertão de Quixeramobim|2302404|Boa Viagem|BOA VIAGEM|54577
23|Ceará|CE|7|Sul Cearense|33|Brejo Santo|2302503|Brejo Santo|BREJO SANTO|49842
23|Ceará|CE|1|Noroeste Cearense|1|Litoral de Camocim e Acaraú|2302602|Camocim|CAMOCIM|63907
23|Ceará|CE|7|Sul Cearense|29|Chapada do Araripe|2302701|Campos Sales|CAMPOS SALES|27470
23|Ceará|CE|2|Norte Cearense|12|Canindé|2302800|Canindé|CANINDE|77244
23|Ceará|CE|2|Norte Cearense|13|Baturité|2302909|Capistrano|CAPISTRANO|17786
23|Ceará|CE|2|Norte Cearense|12|Canindé|2303006|Caridade|CARIDADE|22782
23|Ceará|CE|1|Noroeste Cearense|5|Sobral|2303105|Cariré|CARIRE|18459
23|Ceará|CE|7|Sul Cearense|30|Caririaçu|2303204|Caririaçu|CARIRIACU|26987
23|Ceará|CE|6|Centro-Sul Cearense|27|Várzea Alegre|2303303|Cariús|CARIUS|18699
23|Ceará|CE|1|Noroeste Cearense|2|Ibiapaba|2303402|Carnaubal|CARNAUBAL|17685
23|Ceará|CE|2|Norte Cearense|15|Cascavel|2303501|Cascavel|CASCAVEL|72232
23|Ceará|CE|4|Sertões Cearenses|20|Sertão de Inhamuns|2303600|Catarina|CATARINA|20871
23|Ceará|CE|1|Noroeste Cearense|7|Santa Quitéria|2303659|Catunda|CATUNDA|10376
23|Ceará|CE|3|Metropolitana de Fortaleza|16|Fortaleza|2303709|Caucaia|CAUCAIA|365212
23|Ceará|CE|6|Centro-Sul Cearense|26|Iguatu|2303808|Cedro|CEDRO|25585
23|Ceará|CE|1|Noroeste Cearense|1|Litoral de Camocim e Acaraú|2303907|Chaval|CHAVAL|13091
23|Ceará|CE|4|Sertões Cearenses|19|Sertão de Quixeramobim|2303931|Choró|CHORO|13565
23|Ceará|CE|2|Norte Cearense|14|Chorozinho|2303956|Chorozinho|CHOROZINHO|20274
23|Ceará|CE|1|Noroeste Cearense|3|Coreaú|2304004|Coreaú|COREAU|23239
23|Ceará|CE|4|Sertões Cearenses|18|Sertão de Cratéus|2304103|Crateús|CRATEUS|75159
23|Ceará|CE|7|Sul Cearense|32|Cariri|2304202|Crato|CRATO|133031
23|Ceará|CE|1|Noroeste Cearense|2|Ibiapaba|2304236|Croatá|CROATA|18133
23|Ceará|CE|1|Noroeste Cearense|1|Litoral de Camocim e Acaraú|2304251|Cruz|CRUZ|24977
23|Ceará|CE|4|Sertões Cearenses|21|Sertão de Senador Pompeu|2304269|Deputado Irapuan Pinheiro|DEPUTADO IRAPUAN PINHEIRO|9662
23|Ceará|CE|5|Jaguaribe|25|Serra do Pereiro|2304277|Ererê|ERERE|7225
23|Ceará|CE|3|Metropolitana de Fortaleza|16|Fortaleza|2304285|Eusébio|EUSEBIO|54337
23|Ceará|CE|7|Sul Cearense|30|Caririaçu|2304301|Farias Brito|FARIAS BRITO|19389
23|Ceará|CE|1|Noroeste Cearense|5|Sobral|2304350|Forquilha|FORQUILHA|24452
23|Ceará|CE|3|Metropolitana de Fortaleza|16|Fortaleza|2304400|Fortaleza|FORTALEZA|2686612
23|Ceará|CE|5|Jaguaribe|22|Litoral de Aracati|2304459|Fortim|FORTIM|16631
23|Ceará|CE|1|Noroeste Cearense|3|Coreaú|2304509|Frecheirinha|FRECHEIRINHA|14134
23|Ceará|CE|2|Norte Cearense|11|Médio Curu|2304608|General Sampaio|GENERAL SAMPAIO|7694
23|Ceará|CE|1|Noroeste Cearense|5|Sobral|2304657|Graça|GRACA|14407
23|Ceará|CE|1|Noroeste Cearense|1|Litoral de Camocim e Acaraú|2304707|Granja|GRANJA|54962
23|Ceará|CE|7|Sul Cearense|30|Caririaçu|2304806|Granjeiro|GRANJEIRO|4814
23|Ceará|CE|1|Noroeste Cearense|5|Sobral|2304905|Groaíras|GROAIRAS|11144
23|Ceará|CE|3|Metropolitana de Fortaleza|16|Fortaleza|2304954|Guaiúba|GUAIUBA|26290
23|Ceará|CE|1|Noroeste Cearense|2|Ibiapaba|2305001|Guaraciaba do Norte|GUARACIABA DO NORTE|40784
23|Ceará|CE|2|Norte Cearense|13|Baturité|2305100|Guaramiranga|GUARAMIRANGA|5132
23|Ceará|CE|1|Noroeste Cearense|7|Santa Quitéria|2305209|Hidrolândia|HIDROLANDIA|20053
23|Ceará|CE|3|Metropolitana de Fortaleza|17|Pacajus|2305233|Horizonte|HORIZONTE|68529
23|Ceará|CE|4|Sertões Cearenses|19|Sertão de Quixeramobim|2305266|Ibaretama|IBARETAMA|13369
23|Ceará|CE|1|Noroeste Cearense|2|Ibiapaba|2305308|Ibiapina|IBIAPINA|25082
23|Ceará|CE|5|Jaguaribe|23|Baixo Jaguaribe|2305332|Ibicuitinga|IBICUITINGA|12629
23|Ceará|CE|5|Jaguaribe|22|Litoral de Aracati|2305357|Icapuí|ICAPUI|20060
23|Ceará|CE|6|Centro-Sul Cearense|26|Iguatu|2305407|Icó|ICO|68162
23|Ceará|CE|6|Centro-Sul Cearense|26|Iguatu|2305506|Iguatu|IGUATU|103074
23|Ceará|CE|4|Sertões Cearenses|18|Sertão de Cratéus|2305605|Independência|INDEPENDENCIA|26187
23|Ceará|CE|4|Sertões Cearenses|18|Sertão de Cratéus|2305654|Ipaporanga|IPAPORANGA|11596
23|Ceará|CE|6|Centro-Sul Cearense|28|Lavras da Mangabeira|2305704|Ipaumirim|IPAUMIRIM|12485
23|Ceará|CE|1|Noroeste Cearense|6|Ipu|2305803|Ipu|IPU|42058
23|Ceará|CE|1|Noroeste Cearense|6|Ipu|2305902|Ipueiras|IPUEIRAS|38114
23|Ceará|CE|5|Jaguaribe|25|Serra do Pereiro|2306009|Iracema|IRACEMA|14326
23|Ceará|CE|1|Noroeste Cearense|5|Sobral|2306108|Irauçuba|IRAUCUBA|24305
23|Ceará|CE|5|Jaguaribe|22|Litoral de Aracati|2306207|Itaiçaba|ITAICABA|7866
23|Ceará|CE|3|Metropolitana de Fortaleza|16|Fortaleza|2306256|Itaitinga|ITAITINGA|38325
23|Ceará|CE|2|Norte Cearense|10|Uruburetama|2306306|Itapajé|ITAPAJE|53067
23|Ceará|CE|2|Norte Cearense|8|Itapipoca|2306405|Itapipoca|ITAPIPOCA|130539
23|Ceará|CE|2|Norte Cearense|13|Baturité|2306504|Itapiúna|ITAPIUNA|20520
23|Ceará|CE|1|Noroeste Cearense|1|Litoral de Camocim e Acaraú|2306553|Itarema|ITAREMA|42215
23|Ceará|CE|2|Norte Cearense|12|Canindé|2306603|Itatira|ITATIRA|21836
23|Ceará|CE|5|Jaguaribe|24|Médio Jaguaribe|2306702|Jaguaretama|JAGUARETAMA|18147
23|Ceará|CE|5|Jaguaribe|24|Médio Jaguaribe|2306801|Jaguaribara|JAGUARIBARA|11492
23|Ceará|CE|5|Jaguaribe|24|Médio Jaguaribe|2306900|Jaguaribe|JAGUARIBE|34636
23|Ceará|CE|5|Jaguaribe|23|Baixo Jaguaribe|2307007|Jaguaruana|JAGUARUANA|33834
23|Ceará|CE|7|Sul Cearense|32|Cariri|2307106|Jardim|JARDIM|27181
23|Ceará|CE|7|Sul Cearense|33|Brejo Santo|2307205|Jati|JATI|8130
23|Ceará|CE|1|Noroeste Cearense|1|Litoral de Camocim e Acaraú|2307254|Jijoca de Jericoacoara|JIJOCA DE JERICOACOARA|20087
23|Ceará|CE|7|Sul Cearense|32|Cariri|2307304|Juazeiro do Norte|JUAZEIRO DO NORTE|276264
23|Ceará|CE|6|Centro-Sul Cearense|27|Várzea Alegre|2307403|Jucás|JUCAS|24892
23|Ceará|CE|6|Centro-Sul Cearense|28|Lavras da Mangabeira|2307502|Lavras da Mangabeira|LAVRAS DA MANGABEIRA|31492
23|Ceará|CE|5|Jaguaribe|23|Baixo Jaguaribe|2307601|Limoeiro do Norte|LIMOEIRO DO NORTE|59890
23|Ceará|CE|4|Sertões Cearenses|19|Sertão de Quixeramobim|2307635|Madalena|MADALENA|19864
23|Ceará|CE|3|Metropolitana de Fortaleza|16|Fortaleza|2307650|Maracanaú|MARACANAU|229458
23|Ceará|CE|3|Metropolitana de Fortaleza|16|Fortaleza|2307700|Maranguape|MARANGUAPE|130346
23|Ceará|CE|1|Noroeste Cearense|1|Litoral de Camocim e Acaraú|2307809|Marco|MARCO|27595
23|Ceará|CE|1|Noroeste Cearense|1|Litoral de Camocim e Acaraú|2307908|Martinópole|MARTINOPOLE|11321
23|Ceará|CE|1|Noroeste Cearense|5|Sobral|2308005|Massapê|MASSAPE|39044
23|Ceará|CE|7|Sul Cearense|31|Barro|2308104|Mauriti|MAURITI|48168
23|Ceará|CE|1|Noroeste Cearense|4|Meruoca|2308203|Meruoca|MERUOCA|15185
23|Ceará|CE|7|Sul Cearense|33|Brejo Santo|2308302|Milagres|MILAGRES|27462
23|Ceará|CE|4|Sertões Cearenses|21|Sertão de Senador Pompeu|2308351|Milhã|MILHA|13142
23|Ceará|CE|1|Noroeste Cearense|5|Sobral|2308377|Miraíma|MIRAIMA|13894
23|Ceará|CE|7|Sul Cearense|32|Cariri|2308401|Missão Velha|MISSAO VELHA|35480
23|Ceará|CE|4|Sertões Cearenses|21|Sertão de Senador Pompeu|2308500|Mombaça|MOMBACA|43858
23|Ceará|CE|4|Sertões Cearenses|18|Sertão de Cratéus|2308609|Monsenhor Tabosa|MONSENHOR TABOSA|17249
23|Ceará|CE|5|Jaguaribe|23|Baixo Jaguaribe|2308708|Morada Nova|MORADA NOVA|61738
23|Ceará|CE|1|Noroeste Cearense|3|Coreaú|2308807|Moraújo|MORAUJO|8779
23|Ceará|CE|1|Noroeste Cearense|1|Litoral de Camocim e Acaraú|2308906|Morrinhos|MORRINHOS|22685
23|Ceará|CE|1|Noroeste Cearense|5|Sobral|2309003|Mucambo|MUCAMBO|14549
23|Ceará|CE|2|Norte Cearense|13|Baturité|2309102|Mulungu|MULUNGU|10941
23|Ceará|CE|7|Sul Cearense|32|Cariri|2309201|Nova Olinda|NOVA OLINDA|15684
23|Ceará|CE|4|Sertões Cearenses|18|Sertão de Cratéus|2309300|Nova Russas|NOVA RUSSAS|32408
23|Ceará|CE|4|Sertões Cearenses|18|Sertão de Cratéus|2309409|Novo Oriente|NOVO ORIENTE|28673
23|Ceará|CE|2|Norte Cearense|14|Chorozinho|2309458|Ocara|OCARA|25833
23|Ceará|CE|6|Centro-Sul Cearense|26|Iguatu|2309508|Orós|OROS|21384
23|Ceará|CE|3|Metropolitana de Fortaleza|17|Pacajus|2309607|Pacajus|PACAJUS|73188
23|Ceará|CE|3|Metropolitana de Fortaleza|16|Fortaleza|2309706|Pacatuba|PACATUBA|84554
23|Ceará|CE|2|Norte Cearense|13|Baturité|2309805|Pacoti|PACOTI|12288
23|Ceará|CE|1|Noroeste Cearense|5|Sobral|2309904|Pacujá|PACUJA|6549
23|Ceará|CE|5|Jaguaribe|23|Baixo Jaguaribe|2310001|Palhano|PALHANO|9422
23|Ceará|CE|2|Norte Cearense|13|Baturité|2310100|Palmácia|PALMACIA|13439
23|Ceará|CE|2|Norte Cearense|9|Baixo Curu|2310209|Paracuru|PARACURU|35304
23|Ceará|CE|2|Norte Cearense|9|Baixo Curu|2310258|Paraipaba|PARAIPABA|32992
23|Ceará|CE|4|Sertões Cearenses|20|Sertão de Inhamuns|2310308|Parambu|PARAMBU|31455
23|Ceará|CE|2|Norte Cearense|12|Canindé|2310407|Paramoti|PARAMOTI|12252
23|Ceará|CE|4|Sertões Cearenses|21|Sertão de Senador Pompeu|2310506|Pedra Branca|PEDRA BRANCA|43309
23|Ceará|CE|7|Sul Cearense|33|Brejo Santo|2310605|Penaforte|PENAFORTE|9143
23|Ceará|CE|2|Norte Cearense|11|Médio Curu|2310704|Pentecoste|PENTECOSTE|37900
23|Ceará|CE|5|Jaguaribe|25|Serra do Pereiro|2310803|Pereiro|PEREIRO|16331
23|Ceará|CE|2|Norte Cearense|15|Cascavel|2310852|Pindoretama|PINDORETAMA|20769
23|Ceará|CE|4|Sertões Cearenses|21|Sertão de Senador Pompeu|2310902|Piquet Carneiro|PIQUET CARNEIRO|17086
23|Ceará|CE|1|Noroeste Cearense|6|Ipu|2310951|Pires Ferreira|PIRES FERREIRA|11001
23|Ceará|CE|1|Noroeste Cearense|6|Ipu|2311009|Poranga|PORANGA|12347
23|Ceará|CE|7|Sul Cearense|32|Cariri|2311108|Porteiras|PORTEIRAS|14958
23|Ceará|CE|7|Sul Cearense|29|Chapada do Araripe|2311207|Potengi|POTENGI|11106
23|Ceará|CE|5|Jaguaribe|25|Serra do Pereiro|2311231|Potiretama|POTIRETAMA|6437
23|Ceará|CE|4|Sertões Cearenses|18|Sertão de Cratéus|2311264|Quiterianópolis|QUITERIANOPOLIS|21166
23|Ceará|CE|4|Sertões Cearenses|19|Sertão de Quixeramobim|2311306|Quixadá|QUIXADA|88321
23|Ceará|CE|6|Centro-Sul Cearense|26|Iguatu|2311355|Quixelô|QUIXELO|16147
23|Ceará|CE|4|Sertões Cearenses|19|Sertão de Quixeramobim|2311405|Quixeramobim|QUIXERAMOBIM|81778
23|Ceará|CE|5|Jaguaribe|23|Baixo Jaguaribe|2311504|Quixeré|QUIXERE|22293
23|Ceará|CE|2|Norte Cearense|13|Baturité|2311603|Redenção|REDENCAO|29146
23|Ceará|CE|1|Noroeste Cearense|6|Ipu|2311702|Reriutaba|RERIUTABA|18385
23|Ceará|CE|5|Jaguaribe|23|Baixo Jaguaribe|2311801|Russas|RUSSAS|78882
23|Ceará|CE|4|Sertões Cearenses|20|Sertão de Inhamuns|2311900|Saboeiro|SABOEIRO|15788
23|Ceará|CE|7|Sul Cearense|29|Chapada do Araripe|2311959|Salitre|SALITRE|16635
23|Ceará|CE|1|Noroeste Cearense|7|Santa Quitéria|2312205|Santa Quitéria|SANTA QUITERIA|43711
23|Ceará|CE|1|Noroeste Cearense|5|Sobral|2312007|Santana do Acaraú|SANTANA DO ACARAU|32654
23|Ceará|CE|7|Sul Cearense|32|Cariri|2312106|Santana do Cariri|SANTANA DO CARIRI|17712
23|Ceará|CE|1|Noroeste Cearense|2|Ibiapaba|2312304|São Benedito|SAO BENEDITO|48131
23|Ceará|CE|2|Norte Cearense|9|Baixo Curu|2312403|São Gonçalo do Amarante|SAO GONCALO DO AMARANTE|48869
23|Ceará|CE|5|Jaguaribe|23|Baixo Jaguaribe|2312502|São João do Jaguaribe|SAO JOAO DO JAGUARIBE|7601
23|Ceará|CE|2|Norte Cearense|11|Médio Curu|2312601|São Luís do Curu|SAO LUIS DO CURU|13044
23|Ceará|CE|4|Sertões Cearenses|21|Sertão de Senador Pompeu|2312700|Senador Pompeu|SENADOR POMPEU|25456
23|Ceará|CE|1|Noroeste Cearense|5|Sobral|2312809|Senador Sá|SENADOR SA|7691
23|Ceará|CE|1|Noroeste Cearense|5|Sobral|2312908|Sobral|SOBRAL|210711
23|Ceará|CE|4|Sertões Cearenses|21|Sertão de Senador Pompeu|2313005|Solonópole|SOLONOPOLE|18357
23|Ceará|CE|5|Jaguaribe|23|Baixo Jaguaribe|2313104|Tabuleiro do Norte|TABULEIRO DO NORTE|30807
23|Ceará|CE|4|Sertões Cearenses|18|Sertão de Cratéus|2313203|Tamboril|TAMBORIL|26225
23|Ceará|CE|6|Centro-Sul Cearense|27|Várzea Alegre|2313252|Tarrafas|TARRAFAS|8573
23|Ceará|CE|4|Sertões Cearenses|20|Sertão de Inhamuns|2313302|Tauá|TAUA|59062
23|Ceará|CE|2|Norte Cearense|11|Médio Curu|2313351|Tejuçuoca|TEJUCUOCA|19371
23|Ceará|CE|1|Noroeste Cearense|2|Ibiapaba|2313401|Tianguá|TIANGUA|76537
23|Ceará|CE|2|Norte Cearense|8|Itapipoca|2313500|Trairi|TRAIRI|56291
23|Ceará|CE|2|Norte Cearense|10|Uruburetama|2313559|Tururu|TURURU|16431
23|Ceará|CE|1|Noroeste Cearense|2|Ibiapaba|2313609|Ubajara|UBAJARA|35047
23|Ceará|CE|6|Centro-Sul Cearense|28|Lavras da Mangabeira|2313708|Umari|UMARI|7736
23|Ceará|CE|2|Norte Cearense|10|Uruburetama|2313757|Umirim|UMIRIM|19903
23|Ceará|CE|2|Norte Cearense|10|Uruburetama|2313807|Uruburetama|URUBURETAMA|22040
23|Ceará|CE|1|Noroeste Cearense|3|Coreaú|2313906|Uruoca|URUOCA|13915
23|Ceará|CE|1|Noroeste Cearense|6|Ipu|2313955|Varjota|VARJOTA|18471
23|Ceará|CE|6|Centro-Sul Cearense|27|Várzea Alegre|2314003|Várzea Alegre|VARZEA ALEGRE|40903
23|Ceará|CE|1|Noroeste Cearense|2|Ibiapaba|2314102|Viçosa do Ceará|VICOSA DO CEARA|61410
